Lab 0: Getting Started with dplyr – Ethan Harner - MUSA 5080 Portfolio
…
Columns: The data have seven columns.

Variable types: I see the following variable types: character, and double number variables.

Problematic names: Engine size might cause problems because they are stored as numerical data. Since this data is categorical (you can’t subdivide an engine type), it might be best to organize it as character data. I’m also unsure as to why engine size and fuel type are stored with `` around their names, as this might make it difficult to call the data. It might be easier to store them with an _ . The dates are also not stored as date.

1.2 Tibble vs Data Frame

Compare how tibbles and data frames display:

# Look at the tibble version (what we have)
car_data

# A tibble: 50,000 × 7
   Manufacturer Model    `Engine size` `Fuel type` `Year of manufacture` Mileage
   <chr>        <chr>            <dbl> <chr>                       <dbl>   <dbl>
 1 Ford         Fiesta             1   Petrol                       2002  127300
 2 Porsche      718 Cay…           4   Petrol                       2016   57850
 3 Ford         Mondeo             1.6 Diesel                       2014   39190
 4 Toyota       RAV4               1.8 Hybrid                       1988  210814
 5 VW           Polo               1   Petrol                       2006  127869
 6 Ford         Focus              1.4 Petrol                       2018   33603
 7 Ford         Mondeo             1.8 Diesel                       2010   86686
 8 Toyota       Prius              1.4 Hybrid                       2015   30663
 9 VW           Polo               1.2 Petrol                       2012   73470
10 Ford         Focus              2   Diesel                       1992  262514
# ℹ 49,990 more rows
# ℹ 1 more variable: Price <dbl>
…
Exercise 4: Filtering Practice

4.1 Basic Filtering

# Find all Toyota cars

Toyotas <- car_data %>%
  filter(Manufacturer %in% "Toyota")

Toyotas

# A tibble: 12,554 × 7
   Manufacturer Model `Engine size` `Fuel type` `Year of manufacture` Mileage
   <chr>        <chr>         <dbl> <chr>                       <dbl>   <dbl>
 1 Toyota       RAV4            1.8 Hybrid                       1988  210814
 2 Toyota       Prius           1.4 Hybrid                       2015   30663
 3 Toyota       RAV4            2.2 Petrol                       2007   79393
 4 Toyota       Yaris           1.4 Petrol                       1998   97286
 5 Toyota       RAV4            2.4 Hybrid                       2003  117425
 6 Toyota       Yaris           1.2 Petrol                       1992  245990
 7 Toyota       RAV4            2   Hybrid                       2018   28381
 8 Toyota       Prius           1   Hybrid                       2003  115291
 9 Toyota       Prius           1   Hybrid                       1990  238571
10 Toyota       Prius           1.8 Hybrid                       2017   31958
# ℹ 12,544 more rows
# ℹ 1 more variable: Price <dbl>

# Find cars with mileage less than 30,000

low_mile_cars <- car_data %>%
  filter(Mileage < 30000)

low_mile_cars

# A tibble: 5,402 × 7
   Manufacturer Model    `Engine size` `Fuel type` `Year of manufacture` Mileage
   <chr>        <chr>            <dbl> <chr>                       <dbl>   <dbl>
 1 Toyota       RAV4               2   Hybrid                       2018   28381
 2 VW           Golf               2   Petrol                       2020   18985
 3 BMW          M5                 4   Petrol                       2017   22759
 4 Toyota       RAV4               2.4 Petrol                       2018   24588
 5 VW           Golf               2   Hybrid                       2018   25017
 6 Porsche      718 Cay…           2.4 Petrol                       2021   14070
 7 Ford         Focus              1.8 Petrol                       2020   22371
 8 Ford         Mondeo             1.6 Diesel                       2015   21834
 9 VW           Passat             1.6 Diesel                       2018   22122
10 VW           Passat             1.4 Diesel                       2020   21413
# ℹ 5,392 more rows
# ℹ 1 more variable: Price <dbl>
…
Honda_Nissan

# A tibble: 0 × 7
# ℹ 7 variables: Manufacturer <chr>, Model <chr>, Engine size <dbl>,
#   Fuel type <chr>, Year of manufacture <dbl>, Mileage <dbl>, Price <dbl>

#There were no Hondas or Nissans in the dataset

# Find cars with price between $20,000 and $35,000

cars_price <- car_data %>%
  filter(Price >= 20000 & Price <= 35000)
cars_price

# A tibble: 7,301 × 7
   Manufacturer Model  `Engine size` `Fuel type` `Year of manufacture` Mileage
   <chr>        <chr>          <dbl> <chr>                       <dbl>   <dbl>
 1 Ford         Mondeo           1.6 Diesel                       2014   39190
 2 Ford         Focus            1.4 Petrol                       2018   33603
 3 Toyota       Prius            1.4 Hybrid                       2015   30663
 4 Toyota       Prius            1.4 Hybrid                       2016   43893
 5 Toyota       Prius            1.4 Hybrid                       2016   43130
 6 VW           Passat           1.6 Petrol                       2016   64344
 7 Ford         Mondeo           1.6 Diesel                       2015   21834
 8 BMW          M5               4.4 Petrol                       2008  109941
 9 BMW          Z4               2.2 Petrol                       2014   61332
10 Porsche      911              3.5 Petrol                       2003  107705
# ℹ 7,291 more rows
# ℹ 1 more variable: Price <dbl>
…
